Enter a search value: 567
ISBN  : J-3646-1567 Chain of Violence                        Ortiz Eugene G        369 1958
ISBN  : W-4567-3987 The Fortune Hunter                       Utrera Jose           182 1950
ISBN  : O-1914-5676 Knave of Hearts                          Worthington Michael   290 1991
ISBN  : P-5675-7553 Lord Abberley's Nemesis                  Kiyabu George         321 1957
ISBN  : L-5676-0871 Love's Harbinger                         Fair Tony             438 1960
ISBN  : R-0830-3567 Sea Jade                                 Golding S L           283 1968


Enter a search value: 145
ISBN  : X-1455-2315 The Man You'll Marry                     Klempan Ken           518 1953
ISBN  : Z-6441-7145 Matched Pair                             Yagi Matsuno          234 1999
ISBN  : G-7784-1454 A Reason For Marriage                    Pearce Matthew        265 1997
ISBN  : S-1455-6158 Saturday the Rabbi Went Hungry           Costa Jason P         487 1964
ISBN  : H-1451-3530 A Savage Adoration                       Miller Dennis         461 1977
ISBN  : O-1438-8145 The Stolen Bride                         Umeno Dennis          414 1952
Pages : Y-7817-1118 Love's Lady Lost                         Fair Tony             145 1968
Pages : C-1951-7658 A Regency Christmas                      Lovin Robert E        145 1993
Pages : R-6138-0185 The Scottish Rebel                       Neves M               145 1952
Pages : F-3748-8307 A Virginian at Venncombe                 Failing P             145 1999


Enter a search value: den
Title : I-5851-6899 The Accidental Romance                   Zuke William F        544 1965
Title : L-0431-4985 Against the Evidence                     Tokunaga S            355 1990
Title : R-8493-5936 The Ardent Protector                     Johnasen Benj T       317 1971
Title : Q-5126-9122 At the Sign of the Golden Pineapple      Millard M H           272 1996
Title : G-3216-0687 Blue Skies, Golden Dreams                Sakata Steven Y       168 1990
Title : X-4477-8041 Dame Durden's Daughter                   Kitasato Ichiro       188 1987
Title : T-1406-9986 The Denville Diamond                     Yadao V               175 1971
Title : X-2809-0865 Forbidden Love                           Iko Y                 482 1998
Title : K-2202-6806 Forbidden Rapture                        Iko Y                  91 1975
Title : Y-5986-4739 Garden of Silvery Delights               Bachesta Andrew       379 1961
Title : L-6833-0058 The Girl at Golden Hawk                  Onaga Satoru          363 1998
Title : X-8463-2607 Golden Fever                             Johansen Richard      369 1985
Title : B-8982-6580 Golden Glory                             Johansen Richard      157 1995
Title : K-9574-3231 Golden Lotus                             Johansen Richard      394 1998
Title : R-2233-1314 The Golden Thistle                       Ornellas I R          550 1987
Title : A-9163-1216 The Golden Unicorn                       Ornellas I R          359 1970
Title : H-4959-0360 Hidden Death                             Acedo Ralph           369 1998
Title : B-8214-4093 Hidden Inheritance                       Acedo Ralph           281 1982
Title : M-5554-3267 Hidden Love                              Acedo Ralph           157 1961
Title : H-5232-2420 Hidden Treasures                         Acedo Ralph           402 1972
Title : T-8195-4454 The Ice Maiden                           Sakoda Tadashi        468 1956
Title : W-1129-1277 Imprudent Lady                           Lum T                 498 1988
Title : P-6278-8514 The Imprudent Wager                      Rodrigues Matilda     273 1982
Title : D-2428-8205 Lady Arden's Redemption                  Tonac Ambrocio        537 1992
Title : C-0379-9047 Lady in the Lion's Den                   Osako Paul S          183 1979
Title : B-5597-1831 The Lost Duchess of Greyden Castle       Lucas Lois            243 1979
Title : F-8826-9326 Memoirs of a Hoyden                      Balanay Benny          51 1983
Title : E-7174-3108 Savage Eden                              Miller Dennis         477 1960
Title : K-3576-4793 The Shy Young Denbury                    Backlund B J          521 1969
Title : P-3716-8698 The Sign of the Golden Goose             Hicks L                78 1950
Title : B-3623-6112 Silver Water, Golden Sand                Urasaki Andrew T      167 1974
Author: E-8207-6371 Both of Them                             Davis Denver          184 1980
Author: E-8927-1100 A Bouquet of Thorns                      Davis Denver          162 1963
Author: V-8806-1488 Christmas Wishes                         Perreira Denise       386 1990
Author: F-3286-5045 Cinderella's Stepmother                  Perreira Denise       346 1999
Author: P-6123-2810 A Civil Contract                         Perreira Denise       432 1959
Author: L-0075-9821 The Loving Highwayman                    Foreman Denise        251 1971
Author: K-0448-2857 A No Risk Affair                         Bangay Dennis         465 1988
Author: K-5275-7752 No Sad Song                              Bangay Dennis         394 1961
Author: Z-4701-2543 No Way to Begin                          Bangay Dennis         537 1997
Author: O-0768-8686 The Questioning Miss Quinton             Rodenhurst Julia W    191 1971
Author: O-4233-3104 The Quicksilver Pool                     Rodenhurst Julia W     69 1967
Author: F-8985-2002 The Quiet Gentleman                      Rodenhurst Julia W    441 1985
Author: H-1451-3530 A Savage Adoration                       Miller Dennis         461 1977
Author: E-7174-3108 Savage Eden                              Miller Dennis         477 1960
Author: T-0726-9090 The Savage Lord Griffin                  Miller Dennis         305 1975
Author: V-3820-9708 A Scheme for Love                        Wooden Mary           346 1966
Author: H-5022-4483 The Scheme of Things                     Wooden Mary            52 1970
Author: R-7555-5306 Step to the Music                        Umeno Dennis           93 1999
Author: J-7851-0706 Stephanie                                Umeno Dennis          133 1971
Author: O-1438-8145 The Stolen Bride                         Umeno Dennis          414 1952
Author: P-3390-4544 The Unexpected American                  Pearson Dennis R      306 1955


Enter a search value: golden
Title : Q-5126-9122 At the Sign of the Golden Pineapple      Millard M H           272 1996
Title : G-3216-0687 Blue Skies, Golden Dreams                Sakata Steven Y       168 1990
Title : L-6833-0058 The Girl at Golden Hawk                  Onaga Satoru          363 1998
Title : X-8463-2607 Golden Fever                             Johansen Richard      369 1985
Title : B-8982-6580 Golden Glory                             Johansen Richard      157 1995
Title : K-9574-3231 Golden Lotus                             Johansen Richard      394 1998
Title : R-2233-1314 The Golden Thistle                       Ornellas I R          550 1987
Title : A-9163-1216 The Golden Unicorn                       Ornellas I R          359 1970
Title : P-3716-8698 The Sign of the Golden Goose             Hicks L                78 1950
Title : B-3623-6112 Silver Water, Golden Sand                Urasaki Andrew T      167 1974


Enter a search value: rich
Author: L-4087-6116 An Artful Lady                           Louys Richard         301 1962
Author: P-4970-7963 The Azure Castle                         Oshiro Richard        425 1968
Author: W-5458-9850 Babe                                     Oshiro Richard        202 1976
Title : X-9747-5099 Lord Richard's Daughter                  Mills Ray             398 1995
Author: M-7458-9500 The Cat Who Played Post Office           Davis Richard         114 1974
Author: T-7141-9443 A Country Wooing                         Ford Richard          191 1966
Author: W-0041-7338 The Courier of Love                      Ford Richard           76 1957
Author: R-1287-6553 Courting Julia                           Ford Richard          403 1950
Title : H-8781-9575 Rich as Sin                              Yamanaka Masashi      341 1965
Title : N-6903-9027 The Wrong Miss Richmond                  Wojahn C J            278 1961
Author: X-8463-2607 Golden Fever                             Johansen Richard      369 1985
Author: B-8982-6580 Golden Glory                             Johansen Richard      157 1995
Author: K-9574-3231 Golden Lotus                             Johansen Richard      394 1998
Author: J-0792-8298 Mannersby's Lady                         Miday Richard         165 1958
Author: T-6765-9503 The Manson Curse                         Miday Richard         151 1958
Author: C-7256-3203 Marchman's Lady                          Miday Richard         532 1996
Author: V-1563-6513 Margarita                                Miday Richard         196 1987
Author: Z-8590-4228 The Marriage Bargain                     Unger Richard A       496 1978
Author: D-8246-9116 The Marriage Bed                         Unger Richard A       105 1953
Author: E-7605-2040 The Marriage Brokers                     Unger Richard A       382 1973
Author: C-6395-9267 Marriage by Decree                       Unger Richard A       344 1957
Author: V-2794-4172 Paper Chase                              Hilliard Richard      260 1980
Author: G-7137-4274 The Regatta Mystery                      Johansen Richard      173 1966
Author: G-3579-2907 Regency Belles                           Johansen Richard      205 1993
Author: T-2610-8426 Regency Buck                             Johansen Richard      332 1979
Author: K-8943-5619 Scandal's Child                          Gingrich S P          254 1967
Author: I-2840-8575 Scarlet Poppies                          Gingrich S P          113 1959
Author: T-0599-8236 Scarlet Secrets                          Gingrich S P          153 1990
Author: S-4168-5518 Scenes of Crime                          Gingrich S P          254 1981
Author: K-2009-1162 A Singular Honeymoon                     Salas Richard         316 1951
Author: V-9792-6881 The Substitute Bridegroom                Luther Richard B      390 1982
Author: N-6136-6748 The Substitute Bridegroom                Luther Richard B      373 1985
Author: N-9498-6065 Subtle Revenge                           Luther Richard B      438 1978
Author: K-4751-4461 The Sugar Rose                           Luther Richard B      348 1951
Author: E-3154-1222 A Willful Widow                          Inouye Richard M      179 1975


Enter a search value: z
ISBN  : Z-2676-7199 Airs and Graces                          Tom Fredk K           368 1997
ISBN  : Z-3721-0377 The Anodyne Necklace                     Hikiji I              198 1963
Title : P-4970-7963 The Azure Castle                         Oshiro Richard        425 1968
Author: I-5851-6899 The Accidental Romance                   Zuke William F        544 1965
ISBN  : Z-3090-3070 Apollo's Dream                           Yahata Mitsuo         528 1954
ISBN  : Z-7413-5654 At Dark of the Moon                      Davis Linda C          89 1950
ISBN  : Z-5635-2884 Banquets of the Black Widowers           Yamane H              506 1957
ISBN  : Z-7206-4350 Bride of Chance                          Bales Marla D         457 1995
ISBN  : Z-3710-2173 The Captive Bride                        Evans Kaleo           169 1954
ISBN  : Z-8370-0237 Cause For Love                           Sakamoto Sueo         299 1960
ISBN  : Z-0856-4687 Clear Plutocrat                          Tokunana George       527 1987
ISBN  : Z-6337-1318 Columbella                               Quiocho E             258 1977
ISBN  : Z-3629-8245 Consenting Adults                        Radcliffe D T         547 1988
ISBN  : Z-1793-2273 Contrary Lovers                          Rogers Clemet H       539 1965
ISBN  : Z-4452-1397 Cotillion                                Neumann A             166 1991
ISBN  : Z-6125-7815 Darker Side of Desire                    Freitas Harry         245 1973
ISBN  : Z-9696-3719 Deborah Goes to Dover                    Zydervelt William C   379 1973
ISBN  : Z-0872-7207 The Deception Trap                       Gleed Paul S          479 1988
ISBN  : Z-5333-2723 The Demon Rake                           Yadao V               128 1997
ISBN  : Z-7796-9180 An Early Engagement                      Yamamoto Satoru       461 1974
ISBN  : Z-5030-8485 Emily Goes to Exeter                     Jinbo Ronald K        196 1955
ISBN  : Z-3160-3166 Faith, Hope and Love                     Ramos Victor          529 1956
ISBN  : Z-1501-9179 The False Fiancee                        Sakai Kaoru           311 1994
ISBN  : Z-4770-2429 For the Sake of Elena                    Cotton Erna W         531 1954
ISBN  : Z-6829-7572 Funerals Are Fatal                       Salcedo George G      446 1972
ISBN  : Z-4973-8105 Gabriella                                Salcedo George G      156 1954
ISBN  : Z-0986-2480 A Gentleman from Philadelphia            Woo M                 168 1984
ISBN  : Z-1467-8350 The Highwayman                           Wilson Stephen        222 1992
ISBN  : Z-8294-6085 The Hunters and the Hunted               Higa L                478 1999
ISBN  : Z-0027-7298 The Irish Heiress                        Hewetson John H       290 1993
ISBN  : Z-2998-0398 Lady Escapade                            Yamashiro J D         451 1954
ISBN  : Z-4536-1282 Lady Margery's Intrigue                  Sakuma Stanley Y      550 1964
ISBN  : Z-0796-0517 The Lonely Season                        Wong Sau H            104 1955
ISBN  : Z-1283-2903 Lord Tom                                 Baird Homer H         256 1960
ISBN  : Z-0128-4619 The Man in the Brown Suit                Omuro Kenji           362 1980
Title : J-7813-5717 Christmas Rendezvous                     Faltstrom Curtis      420 1974
Author: H-5315-0164 The Ace of Spades                        Zuke William F        227 1966
Author: K-4572-1531 The Benevolent Bride                     Urbanozo Kenneth      188 1978
Author: A-9136-7496 Bertie and the Tinman                    Urbanozo Kenneth      141 1980
Author: C-9897-9113 The Best Laid Schemes                    Urbanozo Kenneth      368 1990
Author: X-6466-4890 Bethlehem Road                           Ortiz Eugene G        327 1970
Author: G-5526-5062 Between Mist and Midnight                Ortiz Eugene G         58 1985
ISBN  : Z-8590-4228 The Marriage Bargain                     Unger Richard A       496 1978
Title : H-6233-1941 The Dazzled Heart                        Perreira F            251 1984
Author: J-3291-5802 Bewitching Love Stories                  Ortiz Eugene G        219 1983
Author: T-4880-2728 Beyond Compare                           Ortiz Eugene G        216 1978
Author: E-0758-9355 Bitter Vines                             Ortiz Jim              88 1982
Author: M-7686-0527 Bittersweet Passion                      Ortiz Jim             319 1979
Author: B-4760-4614 Bittersweet Revenge                      Ortiz Jim             246 1985
Author: H-2987-7340 The Black Mountain                       Imaizumi Stephanie    312 1950
Author: G-8513-9294 Black Rainbow                            Luczak Clifford A      72 1988
Author: J-0323-6113 The Black Swan                           Luczak Clifford A     534 1977
Author: J-3646-1567 Chain of Violence                        Ortiz Eugene G        369 1958
Author: T-0520-9203 Chateau of Flowers                       Omoto Kazuko          248 1971
Author: L-4816-6578 The Chelbeck Charger                     Omoto Kazuko          130 1995
Title : K-8136-8015 Elizabeth's Rake                         Yagi Jeanne E          76 1965
Author: Q-3807-1620 Countess by Contract                     Umezu Shino           492 1981
Author: U-6653-8890 The Curious Rogue                        Ngirmidol Lorenzo     148 1997
ISBN  : Z-6441-7145 Matched Pair                             Yagi Matsuno          234 1999
Author: L-9276-2655 The Curse of Kenton                      Ngirmidol Lorenzo     258 1955
Author: I-3082-3709 The Curse of Kings                       Ngirmidol Lorenzo     288 1980
Author: J-4336-2802 Curse of the Pharoahs                    Ngirmidol Lorenzo     120 1990
Author: Z-9696-3719 Deborah Goes to Dover                    Zydervelt William C   379 1973
Author: C-9480-6704 A Debt of Honor                          Zydervelt William C   529 1968
Author: Y-0597-6965 Deceit of a Pagan                        Zydervelt William C   353 1983
Author: V-0457-1669 The Double Dealers                       Zynel Chester S       528 1972
Author: D-6087-6892 Double Deception                         Zynel Chester S       396 1959
Author: E-2011-8799 A Double Deception                       Zynel Chester S       164 1975
Author: K-1230-7023 Double Masquerade                        Zynel Chester S        72 1951
Author: L-1265-7731 Enchanted Rendezvous                     Zeller Robert E       472 1997
Author: H-8428-1661 Gather Ye Rosebuds                       Zola Michael S        417 1957
Author: H-5221-4666 Gathering of Eagles                      Zola Michael S        348 1961
Author: G-2321-7446 Gaudy Night                              Zola Michael S        504 1985
Author: B-3021-1847 Gazebo Rendezvous                        Zola Michael S        111 1982
Author: V-2808-9747 Hangman's Holiday                        Rodriguez Thomas      287 1951
Author: I-8597-1515 Hanky-Panky                              Rodriguez Thomas      224 1987
Author: Y-4514-6836 Jerusalem Inn                            Toribio Elizabeth L   456 1993
Author: N-0929-3534 Jewelene                                 Toribio Elizabeth L   109 1973
Author: M-9826-6951 The Jewels of Terror                     Toribio Elizabeth L   295 1989
Author: T-1761-4268 King of Kielder                          Zeuch Karl J          425 1994
Author: W-8360-3050 The King of the Castle                   Zeuch Karl J          406 1965
Author: X-6623-6928 Maid of Honor                            Newman Buzz           141 1953
Author: Y-4890-1989 Maid of the Border                       Newman Buzz           343 1979
Author: O-2408-7274 The Major's Lady                         Newman Buzz           495 1950
Author: B-4227-2509 A Mother's Love                          Rodriguez Noelie       97 1963
Title : N-7313-7572 Elyza                                    Costa William K       487 1986
ISBN  : Z-3655-9216 Might As Well Be Dead                    Farrow L M            409 1996
ISBN  : Z-8576-6166 More Tales of the Black Widowers         Miller David          527 1998
ISBN  : Z-4275-6007 Moroccan Madness                         Yamaguchi S           509 1991
ISBN  : Z-3410-5820 Murder In Mesopotamia                    Dayacos Joann         259 1997
ISBN  : Z-0632-4203 Murder With Love                         Ono Noritoshi         294 1973
ISBN  : Z-3269-0563 My Lords, Ladies and Marjorie            Perreira Robert R     243 1992
ISBN  : Z-2307-3554 A Neighborly Affair                      Farley C              162 1981
ISBN  : Z-4701-2543 No Way to Begin                          Bangay Dennis         537 1997
ISBN  : Z-1127-1273 The Pale Horse                           Yamamoto Yeichi       506 1977
ISBN  : Z-8677-1188 Paragon Walk                             Cordero Alfonso       284 1963
ISBN  : Z-5128-9413 Regency Quartet                          Quitiquit Bud         354 1968
ISBN  : Z-5930-8944 The Reluctant Widow                      Jensen Joseph         229 1950
ISBN  : Z-1758-3128 The Return of Moriarty                   Yamanaka Masashi      217 1972
ISBN  : Z-6282-9841 The Ruby Heart                           Datta Tane H           98 1994
ISBN  : Z-4027-6208 The Scoop and Behind the Screen          Neves M               413 1976
ISBN  : Z-7344-7848 Sherida                                  Rodrigues J A         418 1982
ISBN  : Z-8886-2281 Silversword                              Urasaki Andrew T       53 1994
ISBN  : Z-9818-7991 Snow Angel                               Daubenspeck M         544 1956
ISBN  : Z-2855-7230 Stormy Passage                           Glaze A               427 1953
ISBN  : Z-2345-1011 A Talent for Trouble                     Fouts Tom             446 1996
ISBN  : Z-3417-9558 Talk of the Town                         Uga Ann H             341 1972
ISBN  : Z-6829-3331 This Tender Truce                        Unea Mae              394 1978
ISBN  : Z-3721-6095 Timeless Love                            Abraham G B           389 1982
Title : L-1265-7731 Enchanted Rendezvous                     Zeller Robert E       472 1997
Author: H-4518-1366 Perchance to Dream                       Pyzik V                63 1980
Author: O-7715-4995 Perdita                                  Pyzik V               217 1963
Author: X-2859-7122 Perdita                                  Pyzik V               439 1969
Author: H-6060-6598 The Pink Phaeton                         Onizuka Claude S      345 1973
Author: W-6890-2913 Pink Satin                               Onizuka Claude S      485 1951
Author: L-8905-2679 Pistols for Two                          Onizuka Claude S      398 1973
Author: U-4760-9479 Poppy Girl                               Zilber Joseph         124 1980
Author: W-6793-0209 Portrait of Bethany                      Zilber Joseph         377 1964
Author: U-2177-4658 The Positive Approach                    Zilber Joseph         259 1961
Author: G-4421-3109 Promises to Keep                         Hezekia James         534 1959
ISBN  : Z-3900-2479 To Trust a Stranger                      Correia Tony           57 1980
Title : M-8119-0876 The First Waltz                          Tomi M                493 1980
Author: P-7204-3844 The Reformed Rake                        Zeissler David W      251 1974
Title : B-3021-1847 Gazebo Rendezvous                        Zola Michael S        111 1982
Title : V-2558-3036 Lady Elizabeth                           Rogers Robert C       432 1989
Title : E-8415-3609 Lady Elizabeth's Comet                   Yamashiro J D         161 1963
Title : B-1061-3236 Lord Fortune's Prize                     Quintal Adeline       374 1972
Title : X-8204-9699 The Murder at Hazelmoor                  Correia Johnny        242 1979
Title : Z-8522-0240 The Topaz Charm                          Tokihiro Sueo         106 1952
Title : J-2598-0033 Towards Zero                             Sakuda Shinki          62 1956
Title : N-2916-3794 The Waltzing Widow                       Rabin A               489 1954
Title : C-4189-3464 Zombies of the Gene Pool                 Wojahn C J            306 1979
ISBN  : Z-6597-6113 Tokens of Love                           Vernola Vikki         124 1959
Author: S-2535-3008 Season of Mists                          Orozco Urbano          81 1997
Author: B-6717-8853 A Season of Surprises                    Orozco Urbano         518 1958
Author: K-0199-6078 The Second Lady Southvale                Orozco Urbano         344 1955
Author: X-1482-4930 Second-best Bride                        Orozco Urbano         367 1972
Author: G-2044-3503 The Sleeping Heiress                     Zumwalt Clerin K      229 1991
Author: V-5819-5397 Sleeping Murder                          Zumwalt Clerin K      403 1955
ISBN  : Z-8522-0240 The Topaz Charm                          Tokihiro Sueo         106 1952
ISBN  : Z-0759-2179 Touch of Midnight                        Wung Leslie           286 1963
Author: B-4409-4027 Smoke and Mirrors                        Zumwalt Clerin K      133 1985
Author: Z-2855-7230 Stormy Passage                           Glaze A               427 1953
Author: T-3787-2236 Stormy Surrender                         Glaze A               162 1957
Author: B-8726-4766 Strange Capers                           Glaze A               321 1960
Author: H-4632-6890 Strange Felony                           Glaze A               390 1988
Author: D-1058-9766 Who Rides the Tiger                      Cortez Allan T        479 1960
Author: I-2940-2511 The Widow of Bath                        Cortez Allan T        461 1989
Author: T-7466-1523 Wife Errant                              Cortez Allan T        440 1973
ISBN  : Z-3319-9169 An Unlikely Duchess                      Quevedo Avelino       105 1971
ISBN  : Z-4459-1283 Valley of the Devil                      Milton Gerald          67 1979
ISBN  : Z-4335-7234 Vermillion                               Utrera Ignacio U      252 1970
ISBN  : Z-0231-3471 Whose Body                               Kitayama Wallace      234 1972
ISBN  : Z-3049-1757 The Wicked Corinthian                    Kitayama Wallace      119 1962


Enter a search value: hooray
Title : S-0388-5059 Hooray for Homicide                      Correa Ronnie          76 1985


Enter a search value: nada


Enter a search value: 
